Dashboard
…
dunkin_df = 
  rest_inspec %>% 
  filter(dba == c("DUNKIN DONUTS"))

dunkin_df

## # A tibble: 212 x 18
##    action boro  building  camis critical_flag cuisine_descrip… dba  
##    <chr>  <chr> <chr>     <int> <chr>         <chr>            <chr>
##  1 Viola… MANH… 155      5.00e7 Not Critical  Donuts           DUNK…
##  2 Viola… MANH… 155      5.00e7 Not Critical  Donuts           DUNK…
##  3 Viola… MANH… 155      5.00e7 Not Critical  Donuts           DUNK…
##  4 Viola… MANH… 155      5.00e7 Critical      Donuts           DUNK…
##  5 Viola… MANH… 155      5.00e7 Critical      Donuts           DUNK…
##  6 Viola… MANH… 155      5.00e7 Not Critical  Donuts           DUNK…
##  7 Viola… MANH… 155      5.00e7 Not Critical  Donuts           DUNK…
##  8 Viola… MANH… NKA      5.00e7 Critical      Donuts           DUNK…
##  9 Viola… MANH… NKA      5.00e7 Not Critical  Donuts           DUNK…
## 10 Viola… MANH… 155      5.00e7 Not Critical  Donuts           DUNK…
## # … with 202 more rows, and 11 more variables: inspection_date <dttm>,
## #   inspection_type <chr>, phone <chr>, record_date <dttm>, score <int>,
## #   street <chr>, violation_code <chr>, violation_description <chr>,
## #   zipcode <int>, grade <chr>, grade_date <dttm>
…
